BegrVärde;Beskrivning;Ägare;Värde;Från per;Till per;S;;Typ
B100;Göteborgs Stadshus AB;;0;201400;209912;N;Agresso;Org
B110;Göteborg Energi AB;;0;201400;209912;N;;Org
B111;Göteborg Energi Nät AB;;0;201400;209912;N;;Org
B113;Gbg Energi Gasnät AB;;0;201400;209912;N;;Org
B115;Gbg Energi Gothnet AB;;0;201400;209912;N;;Org
B120;Partille Energi AB;;0;201400;209912;N;;Org
B121;Partille Elhandel AB;;0;201400;209912;N;;Org
B126;Sörred Energi AB;;0;201400;209912;N;;Org
B131;Ale Fjärrvärme AB;;0;201400;209912;N;;Org
B135;Skövde Biogas AB;;0;201400;209912;N;;Org
B136;Göteborg Energi Backa AB;;0;201400;209912;N;;Org
B144;Din El AB;;0;201400;209912;N;;Org
B150;Göteborgs Spårvägar AB;;0;201400;209912;N;;Org
B152;Gs Trafikantservice AB;;0;201400;209912;N;;Org
B153;Gs Buss AB;;0;201400;209912;N;;Org
B154;Fastighets AB Rantorget;;0;201400;209912;N;;Org
B245;Göteborgs gatu ab;;0;201400;201612;N;;Org
B250;Liseberg AB;;0;201400;209912;N;;Org
B270;Hotell Liseberg Heden AB;;0;201400;209912;N;;Org
B285;Lisebergs Gäst AB;;0;201400;209912;N;;Org
B300;Göteborgs Stadsteater AB;;0;201400;209912;N;;Org
B331;Älvstranden Utveckling AB;;0;201400;209912;N;;Org
B335;Ferux Fastighet i Göteborg AB;;0;201400;209912;N;;Org
B336;Lindholmspiren Beta AB;;0;201400;209912;N;;Org
B337;Menlin Fastighets AB;;0;201400;209912;N;;Org
B341;Eriksbergs Förvaltning AB;;0;201400;209912;N;;Org
B344;Fastighets AB Raila;;0;201700;209912;N;;Org
B346;Fastighets AB Navet;;0;201400;209912;N;;Org
B350;Got Event AB;;0;201400;209912;N;Agresso;Org
B370;Södra Älvstrandens Utv AB;;0;201400;209912;N;;Org
B371;Älvstranden Gullbergsvass AB;;0;201400;209912;N;;Org
B380;Brg, Business Region Göteborg;;0;201400;209912;N;;Org
B390;Norra Älvstranden Utveckling AB;;0;201400;209912;N;;Org
B391;Scandinavian Distripoint AB;;0;201400;209912;N;;Org
B392;Göteborgs Frihamns AB;;0;201400;209912;N;;Org
B393;Fastighets AB Fribordet;;0;201400;209912;N;;Org
B394;Norra Älvstranden Bostäder AB;;0;201400;209912;N;;Org
B395;Gva Fastigheter AB;;0;201400;209912;N;;Org
B396;Gva Fastigheter KB;;0;201400;209912;N;;Org
B397;N:a Älvstranden Service AB;;0;201400;209912;N;;Org
B398;Torphuset Fastighet AB;;0;201400;209912;N;;Org
B400;Förvaltnings AB Framtiden;;0;201400;209912;N;Agresso;Org
B410;Bostads AB Poseidon;;0;201400;209912;N;;Org
B420;Familjebostäder i Göteborg AB;;0;201400;209912;N;;Org
B421;Gärdsås Torgbolag Kommandidbolag;;0;201400;209912;N;;Org
B429;Berguven samfällighetsförening;;0;201400;209912;N;;Org
B430;Göteborgs Stads Bostad AB;;0;201400;209912;N;;Org
B433;Förvaltnings AB Göteborgslokal;;0;201400;209912;N;;Org
B435;Fastighetsbolaget Bredfjäll AB;;0;201600;209912;N;;Org
B436;Fastighetsbolaget Bredfjäll KB;;0;201600;209912;N;;Org
B437;Fastighetsbolaget Gropens Gård KB;;0;201600;209912;N;;Org
B440;Göteborgs Egnahems AB;;0;201400;209912;N;;Org
B442;Bygga Hem i Gbg AB;;0;201400;209912;N;;Org
B450;Göteborgs Stads Parkerings AB;;0;201400;209912;N;;Org
B475;Gårdstensbostäder AB;;0;201400;209912;N;;Org
B496;Framtiden Byggutveckling AB;;0;201400;209912;N;Agresso;Org
B500;Göteborgs Hamn AB;;0;201400;209912;N;;Org
B505;Göteborgs Stuveri AB (vilande);;0;201400;209912;N;;Org
B570;Fripoint AB;;0;201400;209912;N;;Org
B571;S Tingsvassen 739:137 Fastighets AB;;0;201400;209912;N;;Org
B575;Arendal Holding AB;;0;201400;209912;N;;Org
B600;Hantverks- o Industrihus i gbg;;0;201400;209912;N;;Org
B680;Försäkrings AB Göta Lejon;;0;201400;209912;N;;Org
B705;Göteborgs Stads Leasing AB;;0;201400;209912;N;Agresso;Org
B712;Göteborgs Stads Upphandling AB;;0;201400;209912;N;;Org
B720;GRYAAB AB;;0;201400;209912;N;Agresso;Org
B725;Boplats Göteborg AB;;0;201400;209912;N;;Org
B730;Renova AB;;0;201400;209912;N;;Org
B731;Fastighets AB Rödingen;;0;201400;209912;N;;Org
B732;Kungälvs Transporttjänst AB;;0;201400;209912;N;;Org
B733;Renova Miljö AB;;0;201400;209912;N;;Org
B770;Göteborgsreg.s fritidshamnar a;;0;201400;209912;N;Agresso från årsskiftet;Org
B780;Lindholmen Science Park AB;;0;201400;209912;N;;Org
B790;Johanneberg Science Park AB;;0;201400;209912;N;;Org
B795;Sahlgrenska Science Park AB;;0;201606;209912;N;;Org
B810;Göteborgs Tekniska College AB;;0;201400;209912;N;;Org
B832;Störningsjouren i GBG AB;;0;201400;209912;N;;Org
B860;Göteborg o Co Träffpunkt AB;;0;201400;209912;N;;Org
GKFB;GKF-bolag;;0;201400;209912;N;;
IIII;Gemensam intern motpart;;0;201400;209912;N;;
K171;Räddningstjänstförbundet i sto;;0;201400;209912;N;;Collaboration
K670;Fastigheten stretered;;0;201400;201605;N;;Collaboration
K700;Tolkförmedling Väst;;0;201400;209912;N;;Collaboration
K900;Samordn förb gbg väster;;0;201400;209912;N;;Collaboration
K910;Samordn förb gbg centrum;;0;201400;209912;N;;Collaboration
K920;Samordn förb gbg hisingen;;0;201400;209912;N;;Collaboration
K930;Samordn förb gbg nordost;;0;201400;209912;N;;Collaboration
N010;Kommunledning (stadsledn.kont);;0;201400;209912;N;;OrgUnit
N020;Revisorskollegiet;;0;201400;209912;N;;OrgUnit
N025;Arkivnämnden;;0;201400;209912;N;;OrgUnit
N043;Konsument och medborgarservice;;0;201400;209912;N;;OrgUnit
N050;Inköp och Upphandling;;0;201701;209912;N;;OrgUnit
N060;Intraservice;;0;201400;209912;N;;OrgUnit
N130;Sociala resursnämnden;;0;201400;209912;N;;OrgUnit
N131;Sdf angered;;0;201400;209912;N;;OrgUnit
N132;Sdf östra göteborg;;0;201400;209912;N;;OrgUnit
N133;Sdf örgryte-härlanda;;0;201400;209912;N;;OrgUnit
N134;Sdf centrum;;0;201400;209912;N;;OrgUnit
N135;Sdf majorna-linné;;0;201400;209912;N;;OrgUnit
N136;Sdf askim-frölunda-högsbo;;0;201400;209912;N;;OrgUnit
N137;Sdf västra göteborg;;0;201400;209912;N;;OrgUnit
N138;Sdf västra hisingen;;0;201400;209912;N;;OrgUnit
N139;Sdf lundby;;0;201400;209912;N;;OrgUnit
N140;Sdf norra hisingen;;0;201400;209912;N;;OrgUnit
N152;Valnämnden;;0;201400;209912;N;;OrgUnit
N191;Överförmyndarnämnden;;0;201400;201612;N;;OrgUnit
N200;Fastighetsnämnden (egen verk);;0;201400;209912;N;;OrgUnit
N205;Fastighetsnämnden (trans);;0;201400;209912;N;;OrgUnit
N230;Lokalnämnden;;0;201400;209912;N;;OrgUnit
N300;Byggnadsnämnden;;0;201400;209912;N;;OrgUnit
N392;Park- och naturförvaltningen;;0;201400;209912;N;;OrgUnit
N393;Idrotts- och föreningsförvaltn;;0;201400;209912;N;;OrgUnit
N400;Trafiknämnden;;0;201400;209912;N;;OrgUnit
N444;Färdtjänsten;;0;201400;209912;N;;OrgUnit
N560;Kretslopp och Vattennämnden;;0;201400;209912;N;;OrgUnit
N610;Utbildningsnämnden;;0;201400;209912;N;;OrgUnit
N625;Vuxenutbildningsnämnden;;0;201400;209912;N;;OrgUnit
N690;Kulturnämnden;;0;201400;209912;N;;OrgUnit
N800;Miljö- och klimatnämnden;;0;201400;209912;N;;OrgUnit
N900;Kommuncentrala poster;;0;201400;209912;N;;OrgUnit
XEXX;Extern enskild;;0;201400;209912;N;;
XFXX;Extern föreningar stiftelser;;0;201400;209912;N;;
XKAE;Extern kommun ale;;0;201400;209912;N;;
XKAL;Extern kommun alingsås;;0;201400;209912;N;;
XKHA;Extern kommun härryda;;0;201400;209912;N;;
XKKB;Extern kommun kungsbacka;;0;201400;209912;N;;
XKKU;Extern kommun kungälv;;0;201400;209912;N;;
XKLE;Extern kommun lerum;;0;201400;209912;N;;
XKLI;Extern kommun lilla edet;;0;201400;209912;N;;
XKMO;Extern kommun mölndal;;0;201400;209912;N;;
XKOC;Extern kommun öckerö;;0;201400;209912;N;;
XKPA;Extern kommun partille;;0;201400;209912;N;;
XKST;Extern kommun stenungsund;;0;201400;209912;N;;
XKTJ;Extern kommun tjörn;;0;201400;209912;N;;
XKXX;Extern kommuner;;0;201400;209912;N;;
XLVG;Extern vgr;;0;201400;209912;N;;
XLXX;Extern landsting;;0;201400;209912;N;;
XOGR;Extern kommunalförbund gr;;0;201400;209912;N;;
XOXX;Extern kommunalförbund övriga;;0;201400;209912;N;;
XPXX;Lön personec;;0;201400;201610;N;;
XSAM;Extern ams;;0;201400;209912;N;;
XSFK;Extern försäkringskassan;;0;201400;209912;N;;
XSMI;Migrationsverket;;0;201601;209912;N;;
XSSO;Socialstyrelsen;;0;201601;209912;N;;
XSSV;Skolverket;;0;201601;209912;N;;
XSXX;Extern svenska staten;;0;201400;209912;N;;
XTXX;Extern socialbidrag;;0;201400;201610;N;;
XUXX;Extern org EU;;0;201400;209912;N;;
XXXX;Extern övriga företag Sverige;;0;201400;209912;N;;
XXYX;Extern övriga företag EU;;0;201400;209912;N;;
XXZX;Extern övriga företag ej EU;;0;201400;209912;N;;
